\babel@toc {english}{}\relax 
\contentsline {chapter}{\numberline {1}rgps\_calval}{1}{chapter.1}%
\contentsline {section}{\numberline {1.1}rgps\_calval package}{1}{section.1.1}%
\contentsline {subsection}{\numberline {1.1.1}Submodules}{1}{subsection.1.1.1}%
\contentsline {subsection}{\numberline {1.1.2}rgps\_calval.buoy\_data module}{1}{subsection.1.1.2}%
\contentsline {subsection}{\numberline {1.1.3}rgps\_calval.calval module}{2}{subsection.1.1.3}%
\contentsline {subsection}{\numberline {1.1.4}rgps\_calval.sql module}{6}{subsection.1.1.4}%
\contentsline {subsection}{\numberline {1.1.5}rgps\_calval.util module}{6}{subsection.1.1.5}%
\contentsline {subsection}{\numberline {1.1.6}Module contents}{6}{subsection.1.1.6}%
\contentsline {chapter}{\numberline {2}Indices and tables}{7}{chapter.2}%
\contentsline {chapter}{Python Module Index}{9}{section*.45}%
\contentsline {chapter}{Index}{11}{section*.46}%
