\relax 
\providecommand\hyper@newdestlabel[2]{}
\providecommand\babel@aux[2]{}
\@nameuse{bbl@beforestart}
\providecommand\HyperFirstAtBeginDocument{\AtBeginDocument}
\HyperFirstAtBeginDocument{\ifx\hyper@anchor\@undefined
\global\let\oldcontentsline\contentsline
\gdef\contentsline#1#2#3#4{\oldcontentsline{#1}{#2}{#3}}
\global\let\oldnewlabel\newlabel
\gdef\newlabel#1#2{\newlabelxx{#1}#2}
\gdef\newlabelxx#1#2#3#4#5#6{\oldnewlabel{#1}{{#2}{#3}}}
\AtEndDocument{\ifx\hyper@anchor\@undefined
\let\contentsline\oldcontentsline
\let\newlabel\oldnewlabel
\fi}
\fi}
\global\let\hyper@last\relax 
\gdef\HyperFirstAtBeginDocument#1{#1}
\providecommand\HyField@AuxAddToFields[1]{}
\providecommand\HyField@AuxAddToCoFields[2]{}
\babel@aux{english}{}
\newlabel{index::doc}{{}{1}{}{section*.2}{}}
\@writefile{toc}{\contentsline {chapter}{\numberline {1}rgps\_calval}{1}{chapter.1}\protected@file@percent }
\@writefile{lof}{\addvspace {10\p@ }}
\@writefile{lot}{\addvspace {10\p@ }}
\newlabel{modules:rgps-calval}{{1}{1}{rgps\_calval}{chapter.1}{}}
\newlabel{modules::doc}{{1}{1}{rgps\_calval}{chapter.1}{}}
\@writefile{toc}{\contentsline {section}{\numberline {1.1}rgps\_calval package}{1}{section.1.1}\protected@file@percent }
\newlabel{rgps_calval:rgps-calval-package}{{1.1}{1}{rgps\_calval package}{section.1.1}{}}
\newlabel{rgps_calval::doc}{{1.1}{1}{rgps\_calval package}{section.1.1}{}}
\@writefile{toc}{\contentsline {subsection}{\numberline {1.1.1}Submodules}{1}{subsection.1.1.1}\protected@file@percent }
\newlabel{rgps_calval:submodules}{{1.1.1}{1}{Submodules}{subsection.1.1.1}{}}
\@writefile{toc}{\contentsline {subsection}{\numberline {1.1.2}rgps\_calval.buoy\_data module}{1}{subsection.1.1.2}\protected@file@percent }
\newlabel{rgps_calval:module-rgps_calval.buoy_data}{{1.1.2}{1}{rgps\_calval.buoy\_data module}{subsection.1.1.2}{}}
\newlabel{rgps_calval:rgps-calval-buoy-data-module}{{1.1.2}{1}{rgps\_calval.buoy\_data module}{subsection.1.1.2}{}}
\newlabel{rgps_calval:rgps_calval.buoy_data.HPoint}{{1.1.2}{1}{rgps\_calval.buoy\_data module}{section*.3}{}}
\newlabel{rgps_calval:rgps_calval.buoy_data.Hemisphere}{{1.1.2}{1}{rgps\_calval.buoy\_data module}{section*.4}{}}
\newlabel{rgps_calval:rgps_calval.buoy_data.Hemisphere.NORTH}{{1.1.2}{1}{rgps\_calval.buoy\_data module}{section*.5}{}}
\newlabel{rgps_calval:rgps_calval.buoy_data.Hemisphere.SOUTH}{{1.1.2}{1}{rgps\_calval.buoy\_data module}{section*.6}{}}
\newlabel{rgps_calval:rgps_calval.buoy_data.build_buoy_gdf_web}{{1.1.2}{1}{rgps\_calval.buoy\_data module}{section*.7}{}}
\newlabel{rgps_calval:rgps_calval.buoy_data.build_buoy_gdfs}{{1.1.2}{1}{rgps\_calval.buoy\_data module}{section*.8}{}}
\newlabel{rgps_calval:rgps_calval.buoy_data.build_daily_buoy_gdf_web}{{1.1.2}{1}{rgps\_calval.buoy\_data module}{section*.9}{}}
\newlabel{rgps_calval:rgps_calval.buoy_data.build_daily_buoy_gdfs}{{1.1.2}{1}{rgps\_calval.buoy\_data module}{section*.10}{}}
\newlabel{rgps_calval:rgps_calval.buoy_data.build_hashable_buoy_gdf}{{1.1.2}{1}{rgps\_calval.buoy\_data module}{section*.11}{}}
\newlabel{rgps_calval:rgps_calval.buoy_data.get_buoy_data}{{1.1.2}{1}{rgps\_calval.buoy\_data module}{section*.12}{}}
\newlabel{rgps_calval:rgps_calval.buoy_data.get_buoy_data_table}{{1.1.2}{2}{rgps\_calval.buoy\_data module}{section*.13}{}}
\newlabel{rgps_calval:rgps_calval.buoy_data.get_buoy_data_table2}{{1.1.2}{2}{rgps\_calval.buoy\_data module}{section*.14}{}}
\newlabel{rgps_calval:rgps_calval.buoy_data.get_row_data}{{1.1.2}{2}{rgps\_calval.buoy\_data module}{section*.15}{}}
\newlabel{rgps_calval:rgps_calval.buoy_data.insert_buoy_row_into_database}{{1.1.2}{2}{rgps\_calval.buoy\_data module}{section*.16}{}}
\newlabel{rgps_calval:rgps_calval.buoy_data.load_daily_buoy_gdfs}{{1.1.2}{2}{rgps\_calval.buoy\_data module}{section*.17}{}}
\newlabel{rgps_calval:rgps_calval.buoy_data.load_daily_buoy_gdfs_web}{{1.1.2}{2}{rgps\_calval.buoy\_data module}{section*.18}{}}
\@writefile{toc}{\contentsline {subsection}{\numberline {1.1.3}rgps\_calval.calval module}{2}{subsection.1.1.3}\protected@file@percent }
\newlabel{rgps_calval:module-rgps_calval.calval}{{1.1.3}{2}{rgps\_calval.calval module}{subsection.1.1.3}{}}
\newlabel{rgps_calval:rgps-calval-calval-module}{{1.1.3}{2}{rgps\_calval.calval module}{subsection.1.1.3}{}}
\newlabel{rgps_calval:rgps_calval.calval.Calval}{{1.1.3}{2}{rgps\_calval.calval module}{section*.19}{}}
\newlabel{rgps_calval:rgps_calval.calval.Calval.calval}{{1.1.3}{2}{rgps\_calval.calval module}{section*.20}{}}
\newlabel{rgps_calval:rgps_calval.calval.Calval.find_rmse}{{1.1.3}{2}{rgps\_calval.calval module}{section*.21}{}}
\newlabel{rgps_calval:rgps_calval.calval.Calval.plot_calval}{{1.1.3}{3}{rgps\_calval.calval module}{section*.22}{}}
\newlabel{rgps_calval:rgps_calval.calval.Calval.plot_interpolated_calval}{{1.1.3}{3}{rgps\_calval.calval module}{section*.23}{}}
\newlabel{rgps_calval:rgps_calval.calval.Calval.read_sea_ice_data}{{1.1.3}{3}{rgps\_calval.calval module}{section*.24}{}}
\newlabel{rgps_calval:rgps_calval.calval.calc_vectors}{{1.1.3}{3}{rgps\_calval.calval module}{section*.25}{}}
\newlabel{rgps_calval:rgps_calval.calval.ckdnearest}{{1.1.3}{3}{rgps\_calval.calval module}{section*.26}{}}
\newlabel{rgps_calval:rgps_calval.calval.compare_buoy_ice}{{1.1.3}{4}{rgps\_calval.calval module}{section*.27}{}}
\newlabel{rgps_calval:rgps_calval.calval.find_buoy_matches}{{1.1.3}{4}{rgps\_calval.calval module}{section*.28}{}}
\newlabel{rgps_calval:rgps_calval.calval.get_nearest_times}{{1.1.3}{4}{rgps\_calval.calval module}{section*.29}{}}
\newlabel{rgps_calval:rgps_calval.calval.interpolate_intersection}{{1.1.3}{4}{rgps\_calval.calval module}{section*.30}{}}
\newlabel{rgps_calval:rgps_calval.calval.load_and_merge_daily_buoy_gdfs}{{1.1.3}{5}{rgps\_calval.calval module}{section*.31}{}}
\newlabel{rgps_calval:rgps_calval.calval.make_convex_hull}{{1.1.3}{5}{rgps\_calval.calval module}{section*.32}{}}
\newlabel{rgps_calval:rgps_calval.calval.parse_filename}{{1.1.3}{5}{rgps\_calval.calval module}{section*.33}{}}
\newlabel{rgps_calval:rgps_calval.calval.plot_ice_and_buoy_polar}{{1.1.3}{5}{rgps\_calval.calval module}{section*.34}{}}
\newlabel{rgps_calval:rgps_calval.calval.plot_ice_and_buoy_polar_interpolated}{{1.1.3}{5}{rgps\_calval.calval module}{section*.35}{}}
\@writefile{toc}{\contentsline {subsection}{\numberline {1.1.4}rgps\_calval.sql module}{6}{subsection.1.1.4}\protected@file@percent }
\newlabel{rgps_calval:module-rgps_calval.sql}{{1.1.4}{6}{rgps\_calval.sql module}{subsection.1.1.4}{}}
\newlabel{rgps_calval:rgps-calval-sql-module}{{1.1.4}{6}{rgps\_calval.sql module}{subsection.1.1.4}{}}
\newlabel{rgps_calval:rgps_calval.sql.sql_get_buoy_data}{{1.1.4}{6}{rgps\_calval.sql module}{section*.36}{}}
\newlabel{rgps_calval:rgps_calval.sql.sql_insert_buoy_data}{{1.1.4}{6}{rgps\_calval.sql module}{section*.37}{}}
\newlabel{rgps_calval:rgps_calval.sql.sql_insert_matching_buoy}{{1.1.4}{6}{rgps\_calval.sql module}{section*.38}{}}
\newlabel{rgps_calval:rgps_calval.sql.sql_insert_matching_ice_vec}{{1.1.4}{6}{rgps\_calval.sql module}{section*.39}{}}
\@writefile{toc}{\contentsline {subsection}{\numberline {1.1.5}rgps\_calval.util module}{6}{subsection.1.1.5}\protected@file@percent }
\newlabel{rgps_calval:module-rgps_calval.util}{{1.1.5}{6}{rgps\_calval.util module}{subsection.1.1.5}{}}
\newlabel{rgps_calval:rgps-calval-util-module}{{1.1.5}{6}{rgps\_calval.util module}{subsection.1.1.5}{}}
\newlabel{rgps_calval:rgps_calval.util.build_daily_path}{{1.1.5}{6}{rgps\_calval.util module}{section*.40}{}}
\newlabel{rgps_calval:rgps_calval.util.daterange}{{1.1.5}{6}{rgps\_calval.util module}{section*.41}{}}
\newlabel{rgps_calval:rgps_calval.util.fractional_doy_to_datetime}{{1.1.5}{6}{rgps\_calval.util module}{section*.42}{}}
\newlabel{rgps_calval:rgps_calval.util.row_fractional_doy_to_datetime}{{1.1.5}{6}{rgps\_calval.util module}{section*.43}{}}
\newlabel{rgps_calval:rgps_calval.util.verify_dir}{{1.1.5}{6}{rgps\_calval.util module}{section*.44}{}}
\@writefile{toc}{\contentsline {subsection}{\numberline {1.1.6}Module contents}{6}{subsection.1.1.6}\protected@file@percent }
\newlabel{rgps_calval:module-rgps_calval}{{1.1.6}{6}{Module contents}{subsection.1.1.6}{}}
\newlabel{rgps_calval:module-contents}{{1.1.6}{6}{Module contents}{subsection.1.1.6}{}}
\@writefile{toc}{\contentsline {chapter}{\numberline {2}Indices and tables}{7}{chapter.2}\protected@file@percent }
\@writefile{lof}{\addvspace {10\p@ }}
\@writefile{lot}{\addvspace {10\p@ }}
\newlabel{index:indices-and-tables}{{2}{7}{Indices and tables}{chapter.2}{}}
\@writefile{toc}{\contentsline {chapter}{Python Module Index}{9}{section*.45}\protected@file@percent }
\@writefile{toc}{\contentsline {chapter}{Index}{11}{section*.46}\protected@file@percent }
\gdef \@abspage@last{16}
